CookerStat, GenerateAssetRegistry=0.023115, Initialize=0.120379, RunGuid=RunID894A44BC4E7428D873FD73894C09D53A
SavePackageTransactionId66D03CB94B077C1725A3659D092CFEDB_0, Filename=C:/Users/Mattias/Documents/Unreal Projects/ReplicationLab/Content/Blueprints/BP_PlayerController.uasset, AutoPackageBackupDelegate=3.212981, FlushAsyncLoading=0.005104, FlushStreamingFunc=1.034167, BlockTillAllRequestsFinished=0.006005, ResetLoadersForSaveUnMarkAllObjects=0.405561, TagPackageExports=1.236800, BeginCacheForCookedPlatformData=0.002101, SerializeImports=1.903832, GatherLocalizableTextData=1.830585, MarkNames=0.023715, SerializeSummary=0.015609, SerializeNames=0.108972, SerializeGatherableTextData=0.094261, BuildExportMap=0.090957, SortExportsNonSeekfree=0.128485, SortExportsSeekfreeConstructor=0.057034, SortExportsSeekfreeInner=4.859544, SortExportsSeekfree=0.003304, BuildDependencyMap=0.024017, SerializeImportMap=0.012308, SerializeExportMap=0.013210, SerializeDependencyMap=0.003904, SerializeStringAssetReferenceMap=0.001799, SaveThumbNailsAssetRegistryDataWorldLevelInfo=0.319708, SerializeExports=1.947660, SerializeBulkData=0.011709, MoveFile=2.027810, UnaccountedTime=1.064189, RunGuid=RunID894A44BC4E7428D873FD73894C09D53A
SavePackageTransactionId66D03CB94B077C1725A3659D092CFEDB_1, Filename=C:/Users/Mattias/Documents/Unreal Projects/ReplicationLab/Content/Blueprints/BP_PlayerController.uasset, AutoPackageBackupDelegate=4.009396, FlushAsyncLoading=0.004202, FlushStreamingFunc=1.523785, BlockTillAllRequestsFinished=0.005405, ResetLoadersForSaveUnMarkAllObjects=0.175912, TagPackageExports=2.065037, BeginCacheForCookedPlatformData=0.001799, SerializeImports=2.838038, GatherLocalizableTextData=1.851898, MarkNames=0.023115, SerializeSummary=0.010207, SerializeNames=0.108372, SerializeGatherableTextData=0.090659, BuildExportMap=0.092156, SortExportsNonSeekfree=0.232354, SortExportsSeekfreeConstructor=0.051931, SortExportsSeekfreeInner=5.830675, SortExportsSeekfree=0.003900, BuildDependencyMap=0.029121, SerializeImportMap=0.010207, SerializeExportMap=0.019811, SerializeDependencyMap=0.004504, SerializeStringAssetReferenceMap=0.001501, SaveThumbNailsAssetRegistryDataWorldLevelInfo=0.504624, SerializeExports=3.411408, SerializeBulkData=0.004504, MoveFile=1.944058, UnaccountedTime=0.988543, RunGuid=RunID894A44BC4E7428D873FD73894C09D53A
SavePackageTransactionId66D03CB94B077C1725A3659D092CFEDB_2, Filename=C:/Users/Mattias/Documents/Unreal Projects/ReplicationLab/Content/Blueprints/BP_Pawn.uasset, AutoPackageBackupDelegate=4.754774, FlushAsyncLoading=0.007205, FlushStreamingFunc=0.100568, BlockTillAllRequestsFinished=0.005402, ResetLoadersForSaveUnMarkAllObjects=0.155501, TagPackageExports=4.876956, BeginCacheForCookedPlatformData=0.002101, SerializeImports=5.701293, GatherLocalizableTextData=4.049018, MarkNames=0.033621, SerializeSummary=0.013810, SerializeNames=0.281584, SerializeGatherableTextData=0.042628, BuildExportMap=0.117674, SortExportsNonSeekfree=0.532243, SortExportsSeekfreeConstructor=0.049535, SortExportsSeekfreeInner=6.916776, SortExportsSeekfree=0.003900, BuildDependencyMap=0.053737, SerializeImportMap=0.010807, SerializeExportMap=0.050433, SerializeDependencyMap=0.036325, SerializeStringAssetReferenceMap=0.002399, SaveThumbNailsAssetRegistryDataWorldLevelInfo=0.710260, SerializeExports=7.338550, SerializeBulkData=0.003904, MoveFile=2.245754, UnaccountedTime=1.151543, RunGuid=RunID894A44BC4E7428D873FD73894C09D53A
DDCTransactionId6DF38529433A6C724B8F6B8433FD9248_0, PutCachedData=, CacheKey=PhysX_1D9C17C451EA4FB88CB7A27536A65DB0_PhysXPC_FB34586E4F65E0D92BCEBA821F18623E__1_0_13123_0, StartTime=2016.06.11-11.13.09, HierarchicalDDC=, DataSize=458, Duration=2.550449, RunGuid=RunID894A44BC4E7428D873FD73894C09D53A
DDCTransactionIdBE86A67B4CF3607523FD259874FC64C3_0, PutCachedData=, CacheKey=PhysX_1D9C17C451EA4FB88CB7A27536A65DB0_PhysXPC_906392744AB810EF2645D59AC76CE06F__1_0_13123_0, StartTime=2016.06.11-11.13.09, HierarchicalDDC=, DataSize=458, Duration=1.993593, RunGuid=RunID894A44BC4E7428D873FD73894C09D53A
DDCTransactionIdD8CAA3F54E7E663845B8A7BD32AECB51_0, PutCachedData=, CacheKey=PhysX_1D9C17C451EA4FB88CB7A27536A65DB0_PhysXPC_C72A6D074E2D34701C46E5BC5EF95A2D__1_0_13123_0, StartTime=2016.06.11-11.13.09, HierarchicalDDC=, DataSize=458, Duration=1.945261, RunGuid=RunID894A44BC4E7428D873FD73894C09D53A
DDCTransactionId6DF38529433A6C724B8F6B8433FD9248_1, PutCachedData=, CacheKey=PhysX_1D9C17C451EA4FB88CB7A27536A65DB0_PhysXPC_ADB92DFF41972B6CB77BA5ACA95097AB__1_0_13123_0, StartTime=2016.06.11-11.13.09, HierarchicalDDC=, DataSize=1334, Duration=2.210032, RunGuid=RunID894A44BC4E7428D873FD73894C09D53A
DDCTransactionIdBE86A67B4CF3607523FD259874FC64C3_1, PutCachedData=, CacheKey=PhysX_1D9C17C451EA4FB88CB7A27536A65DB0_PhysXPC_59E2134B408915851532AEBFBE8B79C1__1_0_13123_0, StartTime=2016.06.11-11.13.09, HierarchicalDDC=, DataSize=891, Duration=1.984283, RunGuid=RunID894A44BC4E7428D873FD73894C09D53A
DDCTransactionIdD8CAA3F54E7E663845B8A7BD32AECB51_1, PutCachedData=, CacheKey=PhysX_1D9C17C451EA4FB88CB7A27536A65DB0_PhysXPC_ED4712F346F700986F3595A8136B2EC7__1_0_13123_0, StartTime=2016.06.11-11.13.09, HierarchicalDDC=, DataSize=542, Duration=2.695441, RunGuid=RunID894A44BC4E7428D873FD73894C09D53A
DDCTransactionId6DF38529433A6C724B8F6B8433FD9248_2, PutCachedData=, CacheKey=PhysX_1D9C17C451EA4FB88CB7A27536A65DB0_PhysXPC_FD067C3E43E3AE47677BC3803807C51C__1_0_13123_0, StartTime=2016.06.11-11.13.09, HierarchicalDDC=, DataSize=713, Duration=1.895126, RunGuid=RunID894A44BC4E7428D873FD73894C09D53A
DDCTransactionId35E5F79A466F63FF320598B2CB62280D_0, BuildTexture=, CacheKey=TEXTURE_814DCC3DC72143F49509781513CB9855_AutoDXT_456B631149B6CFFAC87F288C5254C26C_07_0000803F0000803F0000803F000000000000803F00000000000000000000803F0000000000000000020000000E000000000000000101000000040000803FFFFFFFFF00000000FF00FF00FFFF8180803B, StartTime=2016.06.11-11.13.14, Duration=36.404858, RunGuid=RunID894A44BC4E7428D873FD73894C09D53A
DDCTransactionId775DD54C46BE584F792FDB8332E5B058_0, BuildTexture=, CacheKey=TEXTURE_814DCC3DC72143F49509781513CB9855_AutoDXT_EB8EF840471AE48985B1F99D92DDF50C_07_0000803F0000803F0000803F000000000000803F00000000000000000000803F0000000000000000020000000E000000000000000101000000040000803FFFFFFFFF00000000FF00FF00FFFF8180803B, StartTime=2016.06.11-11.13.14, Duration=5.341057, RunGuid=RunID894A44BC4E7428D873FD73894C09D53A
DDCTransactionId7C2A63DF473E7A396E9DEAA7A5AB02E8_0, BuildTexture=, CacheKey=TEXTURE_814DCC3DC72143F49509781513CB9855_DXT1_F26994DB425F3A1B94B8F9A72BC73598_07_0000803F0000803F0000803F000000000000803F00000000000000000000803F0000000000000000020000000E000000000000000101000000040000803FFFFFFFFF00000000FF00FF00FFFF8180803B, StartTime=2016.06.11-11.13.14, Duration=29.914059, RunGuid=RunID894A44BC4E7428D873FD73894C09D53A
DDCTransactionId826BCF414C2D63565072E19A2C438511_0, BuildTexture=, CacheKey=TEXTURE_814DCC3DC72143F49509781513CB9855_DXT1_3B3C6FB0424D80E227202AB2C4495BD3_07_0000803F0000803F0000803F000000000000803F00000000000000000000803F0000000000000000020000000E000000000000000101000000040000803FFFFFFFFF00000000FF00FF00FFFF8180803B, StartTime=2016.06.11-11.13.14, Duration=4.010293, RunGuid=RunID894A44BC4E7428D873FD73894C09D53A
DDCTransactionIdBE86A67B4CF3607523FD259874FC64C3_2, PutCachedData=, CacheKey=TEXTURE_814DCC3DC72143F49509781513CB9855_DXT1_3B3C6FB0424D80E227202AB2C4495BD3__BAEC1FC249CA65C3B592FBF5F8DC35DE8927B903, StartTime=2016.06.11-11.13.14, HierarchicalDDC=, DataSize=3267, Duration=3.224988, RunGuid=RunID894A44BC4E7428D873FD73894C09D53A
DDCTransactionIdD8CAA3F54E7E663845B8A7BD32AECB51_2, PutCachedData=, CacheKey=TEXTURE_814DCC3DC72143F49509781513CB9855_AutoDXT_EB8EF840471AE48985B1F99D92DDF__6F920C72D1E497F1C745B573E74002AA2E41DFA5, StartTime=2016.06.11-11.13.14, HierarchicalDDC=, DataSize=6014, Duration=2.618894, RunGuid=RunID894A44BC4E7428D873FD73894C09D53A
DDCTransactionId6DF38529433A6C724B8F6B8433FD9248_3, PutCachedData=, CacheKey=TEXTURE_814DCC3DC72143F49509781513CB9855_DXT1_F26994DB425F3A1B94B8F9A72BC73598__3F4EA44378110F75E4E36A4F83A627C06AA0C43A, StartTime=2016.06.11-11.13.14, HierarchicalDDC=, DataSize=131332, Duration=2.877064, RunGuid=RunID894A44BC4E7428D873FD73894C09D53A
DDCTransactionIdBE86A67B4CF3607523FD259874FC64C3_3, PutCachedData=, CacheKey=TEXTURE_814DCC3DC72143F49509781513CB9855_DXT1_F26994DB425F3A1B94B8F9A72BC73598__115D854352678F218D0346869419F2C767981F31, StartTime=2016.06.11-11.13.14, HierarchicalDDC=, DataSize=33028, Duration=3.183562, RunGuid=RunID894A44BC4E7428D873FD73894C09D53A
DDCTransactionIdD8CAA3F54E7E663845B8A7BD32AECB51_3, PutCachedData=, CacheKey=TEXTURE_814DCC3DC72143F49509781513CB9855_DXT1_F26994DB425F3A1B94B8F9A72BC73598__CBBD54B0C84897499654685B14622FEDD8FB6349, StartTime=2016.06.11-11.13.14, HierarchicalDDC=, DataSize=8452, Duration=2.872560, RunGuid=RunID894A44BC4E7428D873FD73894C09D53A
DDCTransactionId6DF38529433A6C724B8F6B8433FD9248_4, PutCachedData=, CacheKey=TEXTURE_814DCC3DC72143F49509781513CB9855_DXT1_F26994DB425F3A1B94B8F9A72BC73598__1CEB2BF51E685DC7D59EEE43BFA990E6130C1743, StartTime=2016.06.11-11.13.14, HierarchicalDDC=, DataSize=4143, Duration=2.011601, RunGuid=RunID894A44BC4E7428D873FD73894C09D53A
DDCTransactionIdD8CAA3F54E7E663845B8A7BD32AECB51_4, PutCachedData=, CacheKey=TEXTURE_814DCC3DC72143F49509781513CB9855_AutoDXT_456B631149B6CFFAC87F288C5254C__CD4F5FD7C98252F67EC8FF1884D5900C161B358D, StartTime=2016.06.11-11.13.14, HierarchicalDDC=, DataSize=262407, Duration=3.220484, RunGuid=RunID894A44BC4E7428D873FD73894C09D53A
DDCTransactionIdBE86A67B4CF3607523FD259874FC64C3_4, PutCachedData=, CacheKey=TEXTURE_814DCC3DC72143F49509781513CB9855_AutoDXT_456B631149B6CFFAC87F288C5254C__BEEC04047B6CB732958A3154CFCD40E7A67DF863, StartTime=2016.06.11-11.13.14, HierarchicalDDC=, DataSize=65799, Duration=3.052976, RunGuid=RunID894A44BC4E7428D873FD73894C09D53A
DDCTransactionId6DF38529433A6C724B8F6B8433FD9248_5, PutCachedData=, CacheKey=TEXTURE_814DCC3DC72143F49509781513CB9855_AutoDXT_456B631149B6CFFAC87F288C5254C__E3A4CE057D0107E89BCFEF949DDDFFE62AA89A9D, StartTime=2016.06.11-11.13.14, HierarchicalDDC=, DataSize=16647, Duration=2.627000, RunGuid=RunID894A44BC4E7428D873FD73894C09D53A
DDCTransactionId6DF38529433A6C724B8F6B8433FD9248_6, PutCachedData=, CacheKey=TEXTURE_814DCC3DC72143F49509781513CB9855_AutoDXT_456B631149B6CFFAC87F288C5254C__637B512D46A27CA8E0D2C011D4C1702FDB4D33F9, StartTime=2016.06.11-11.13.14, HierarchicalDDC=, DataSize=6899, Duration=2.435178, RunGuid=RunID894A44BC4E7428D873FD73894C09D53A
DDCTransactionId7C2A63DF473E7A396E9DEAA7A5AB02E8_1, BuildTexture=, CacheKey=TEXTURE_814DCC3DC72143F49509781513CB9855_G8_EFD0B6C64230E621C1AB89A90AD538A0_07_0000803F0000803F0000803F000000000000803F00000000000000000000803F0000000000000000020000000E000000000000000101000000040000803FFFFFFFFF00000000FF00FF00FFFF8180803B, StartTime=2016.06.11-11.13.14, Duration=3.856596, RunGuid=RunID894A44BC4E7428D873FD73894C09D53A
DDCTransactionId775DD54C46BE584F792FDB8332E5B058_1, BuildTexture=, CacheKey=TEXTURE_814DCC3DC72143F49509781513CB9855_G8_9D659C46488BBCAA7DC6E3867EF620FD_07_0000803F0000803F0000803F000000000000803F00000000000000000000803F0000000000000000020000000E000000000000000101000000040000803FFFFFFFFF00000000FF00FF00FFFF8180803B, StartTime=2016.06.11-11.13.14, Duration=0.161204, RunGuid=RunID894A44BC4E7428D873FD73894C09D53A
DDCTransactionIdBE86A67B4CF3607523FD259874FC64C3_5, PutCachedData=, CacheKey=TEXTURE_814DCC3DC72143F49509781513CB9855_G8_9D659C46488BBCAA7DC6E3867EF620FD_0__78FBBB6EF6DF3F89FF333BDF5C60E757214281BC, StartTime=2016.06.11-11.13.14, HierarchicalDDC=, DataSize=3250, Duration=2.109166, RunGuid=RunID894A44BC4E7428D873FD73894C09D53A
DDCTransactionIdD8CAA3F54E7E663845B8A7BD32AECB51_5, PutCachedData=, CacheKey=TEXTURE_814DCC3DC72143F49509781513CB9855_G8_EFD0B6C64230E621C1AB89A90AD538A0_0__7085D7312402F27283D17B2E5FF660140DE84947, StartTime=2016.06.11-11.13.14, HierarchicalDDC=, DataSize=131330, Duration=2.977926, RunGuid=RunID894A44BC4E7428D873FD73894C09D53A
DDCTransactionId6DF38529433A6C724B8F6B8433FD9248_7, PutCachedData=, CacheKey=TEXTURE_814DCC3DC72143F49509781513CB9855_G8_EFD0B6C64230E621C1AB89A90AD538A0_0__3AB3AF8AEB6435751F6AF82E5AAD4498C29004D1, StartTime=2016.06.11-11.13.14, HierarchicalDDC=, DataSize=33026, Duration=3.020253, RunGuid=RunID894A44BC4E7428D873FD73894C09D53A
DDCTransactionIdBE86A67B4CF3607523FD259874FC64C3_6, PutCachedData=, CacheKey=TEXTURE_814DCC3DC72143F49509781513CB9855_G8_EFD0B6C64230E621C1AB89A90AD538A0_0__CBFAB44A29F9CC9D76C9FF69A053BCB6F9ECA82A, StartTime=2016.06.11-11.13.14, HierarchicalDDC=, DataSize=8449, Duration=2.865355, RunGuid=RunID894A44BC4E7428D873FD73894C09D53A
DDCTransactionIdBE86A67B4CF3607523FD259874FC64C3_7, PutCachedData=, CacheKey=TEXTURE_814DCC3DC72143F49509781513CB9855_G8_EFD0B6C64230E621C1AB89A90AD538A0_0__76396224BDFFCC2501B7D37ADBAEB23B16826B7B, StartTime=2016.06.11-11.13.14, HierarchicalDDC=, DataSize=4119, Duration=1.869012, RunGuid=RunID894A44BC4E7428D873FD73894C09D53A
DDCTransactionIdD8CAA3F54E7E663845B8A7BD32AECB51_6, PutCachedData=, CacheKey=PhysX_1D9C17C451EA4FB88CB7A27536A65DB0_PhysXPC_D7FA9C0F467E2C9FF2B1A48B2380A704__1_0_13123_0, StartTime=2016.06.11-11.13.14, HierarchicalDDC=, DataSize=1222, Duration=2.648614, RunGuid=RunID894A44BC4E7428D873FD73894C09D53A
DDCTransactionId6DF38529433A6C724B8F6B8433FD9248_8, PutCachedData=, CacheKey=PhysX_1D9C17C451EA4FB88CB7A27536A65DB0_PhysXPC_043E8DFA4F8C2C93EA0612AB244A0630__1_0_13123_0, StartTime=2016.06.11-11.13.14, HierarchicalDDC=, DataSize=891, Duration=2.441782, RunGuid=RunID894A44BC4E7428D873FD73894C09D53A
DDCTransactionIdBE86A67B4CF3607523FD259874FC64C3_8, PutCachedData=, CacheKey=PhysX_1D9C17C451EA4FB88CB7A27536A65DB0_PhysXPC_3E2D911C48C64C37400A3E92477A2227__1_0_13123_0, StartTime=2016.06.11-11.13.14, HierarchicalDDC=, DataSize=542, Duration=2.407558, RunGuid=RunID894A44BC4E7428D873FD73894C09D53A
DDCTransactionId6DF38529433A6C724B8F6B8433FD9248_9, PutCachedData=, CacheKey=PhysX_1D9C17C451EA4FB88CB7A27536A65DB0_PhysXPC_14AAB3E44F590E64507830B3A5BDBE5F__1_0_13123_0, StartTime=2016.06.11-11.13.14, HierarchicalDDC=, DataSize=713, Duration=1.717713, RunGuid=RunID894A44BC4E7428D873FD73894C09D53A
DDCTransactionId6DF38529433A6C724B8F6B8433FD9248_10, PutCachedData=, CacheKey=REFL_FULL_0C6693969CB849AE9F4120FF5812F4D2_44215CC14CA6CB821148A4AF1214ECFB, StartTime=2016.06.11-11.13.23, HierarchicalDDC=, DataSize=519344, Duration=3.135528, RunGuid=RunID894A44BC4E7428D873FD73894C09D53A
DDCTransactionIdD8CAA3F54E7E663845B8A7BD32AECB51_7, PutCachedData=, CacheKey=REFL_FULL_0C6693969CB849AE9F4120FF5812F4D2_DCAECD2248E045E5733AD3B15793B790, StartTime=2016.06.11-11.13.23, HierarchicalDDC=, DataSize=498085, Duration=3.634453, RunGuid=RunID894A44BC4E7428D873FD73894C09D53A
DDCTransactionId6DF38529433A6C724B8F6B8433FD9248_11, PutCachedData=, CacheKey=REFL_ENC_96DFC022836B48889143E9DF484C3296_44215CC14CA6CB821148A4AF1214ECFB, StartTime=2016.06.11-11.13.48, HierarchicalDDC=, DataSize=524280, Duration=3.383789, RunGuid=RunID894A44BC4E7428D873FD73894C09D53A
DDCTransactionIdBE86A67B4CF3607523FD259874FC64C3_9, PutCachedData=, CacheKey=REFL_ENC_96DFC022836B48889143E9DF484C3296_DCAECD2248E045E5733AD3B15793B790, StartTime=2016.06.11-11.13.48, HierarchicalDDC=, DataSize=524280, Duration=3.123224, RunGuid=RunID894A44BC4E7428D873FD73894C09D53A
SavePackageTransactionId66D03CB94B077C1725A3659D092CFEDB_3, Filename=C:/Users/Mattias/Documents/Unreal Projects/ReplicationLab/Content/StarterContent/Maps/Minimal_Default.umap, AutoPackageBackupDelegate=5.346160, FlushAsyncLoading=0.009008, FlushStreamingFunc=0.141989, BlockTillAllRequestsFinished=0.006605, ResetLoadersForSaveUnMarkAllObjects=46.914063, TagPackageExports=1.142837, BeginCacheForCookedPlatformData=0.001803, SerializeImports=4.097350, GatherLocalizableTextData=8.911267, MarkNames=0.088859, SerializeSummary=0.018913, SerializeNames=0.564363, SerializeGatherableTextData=0.022214, BuildExportMap=0.378545, SortExportsNonSeekfree=0.461098, SortExportsSeekfreeConstructor=0.079252, SortExportsSeekfreeInner=12.652591, SortExportsSeekfree=0.004500, BuildDependencyMap=0.077453, SerializeImportMap=0.042628, SerializeExportMap=0.032119, SerializeDependencyMap=0.007205, SerializeStringAssetReferenceMap=0.001501, SaveThumbNailsAssetRegistryDataWorldLevelInfo=1.060888, SerializeExports=4.643705, SerializeBulkData=13.872877, MoveFile=2.288383, UnaccountedTime=1.053684, RunGuid=RunID894A44BC4E7428D873FD73894C09D53A
DDCTransactionId6DF38529433A6C724B8F6B8433FD9248_12, PutCachedData=, CacheKey=REFL_FULL_0C6693969CB849AE9F4120FF5812F4D2_DCAECD2248E045E5733AD3B15793B790, StartTime=2016.06.11-11.13.59, HierarchicalDDC=, DataSize=496447, Duration=0.745982, RunGuid=RunID894A44BC4E7428D873FD73894C09D53A
DDCTransactionIdBE86A67B4CF3607523FD259874FC64C3_10, PutCachedData=, CacheKey=REFL_FULL_0C6693969CB849AE9F4120FF5812F4D2_44215CC14CA6CB821148A4AF1214ECFB, StartTime=2016.06.11-11.13.59, HierarchicalDDC=, DataSize=513830, Duration=0.651725, RunGuid=RunID894A44BC4E7428D873FD73894C09D53A
SavePackageTransactionId66D03CB94B077C1725A3659D092CFEDB_4, Filename=C:/Users/Mattias/Documents/Unreal Projects/ReplicationLab/Content/Blueprints/BP_Pawn.uasset, AutoPackageBackupDelegate=3.453735, FlushAsyncLoading=0.002999, FlushStreamingFunc=12.931771, BlockTillAllRequestsFinished=0.008404, ResetLoadersForSaveUnMarkAllObjects=0.221845, TagPackageExports=5.347963, BeginCacheForCookedPlatformData=0.002101, SerializeImports=6.236535, GatherLocalizableTextData=4.412856, MarkNames=0.036925, SerializeSummary=0.012908, SerializeNames=0.242557, SerializeGatherableTextData=0.044428, BuildExportMap=0.135988, SortExportsNonSeekfree=0.790413, SortExportsSeekfreeConstructor=0.011407, SortExportsSeekfreeInner=7.643547, SortExportsSeekfree=0.003900, BuildDependencyMap=0.056740, SerializeImportMap=0.012007, SerializeExportMap=0.037223, SerializeDependencyMap=0.007205, SerializeStringAssetReferenceMap=0.001501, SaveThumbNailsAssetRegistryDataWorldLevelInfo=0.728570, SerializeExports=8.395232, SerializeBulkData=0.004806, MoveFile=1.633357, UnaccountedTime=1.074996, RunGuid=RunID894A44BC4E7428D873FD73894C09D53A
SavePackageTransactionId66D03CB94B077C1725A3659D092CFEDB_5, Filename=C:/Users/Mattias/Documents/Unreal Projects/ReplicationLab/Content/Blueprints/BP_Pawn.uasset, AutoPackageBackupDelegate=3.518276, FlushAsyncLoading=0.003301, FlushStreamingFunc=2.181511, BlockTillAllRequestsFinished=0.005104, ResetLoadersForSaveUnMarkAllObjects=0.195429, TagPackageExports=4.683033, BeginCacheForCookedPlatformData=0.002399, SerializeImports=5.788647, GatherLocalizableTextData=4.441977, MarkNames=0.035420, SerializeSummary=0.012308, SerializeNames=0.265673, SerializeGatherableTextData=0.054937, BuildExportMap=0.122778, SortExportsNonSeekfree=0.549357, SortExportsSeekfreeConstructor=0.049531, SortExportsSeekfreeInner=6.944392, SortExportsSeekfree=0.003602, BuildDependencyMap=0.054035, SerializeImportMap=0.011109, SerializeExportMap=0.050131, SerializeDependencyMap=0.034221, SerializeStringAssetReferenceMap=0.003003, SaveThumbNailsAssetRegistryDataWorldLevelInfo=0.709057, SerializeExports=7.209767, SerializeBulkData=0.004202, MoveFile=1.552608, UnaccountedTime=0.964522, RunGuid=RunID894A44BC4E7428D873FD73894C09D53A
SavePackageTransactionId66D03CB94B077C1725A3659D092CFEDB_6, Filename=C:/Users/Mattias/Documents/Unreal Projects/ReplicationLab/Content/StarterContent/Maps/Minimal_Default.umap, AutoPackageBackupDelegate=3.433622, FlushAsyncLoading=0.002701, FlushStreamingFunc=0.085257, BlockTillAllRequestsFinished=0.004802, ResetLoadersForSaveUnMarkAllObjects=46.135059, TagPackageExports=1.192972, BeginCacheForCookedPlatformData=0.001803, SerializeImports=4.039712, GatherLocalizableTextData=11.739098, MarkNames=0.077151, SerializeSummary=0.016510, SerializeNames=0.437085, SerializeGatherableTextData=0.016809, BuildExportMap=0.249464, SortExportsNonSeekfree=0.297189, SortExportsSeekfreeConstructor=0.060640, SortExportsSeekfreeInner=12.525908, SortExportsSeekfree=0.003900, BuildDependencyMap=0.077453, SerializeImportMap=0.047132, SerializeExportMap=0.031520, SerializeDependencyMap=0.006903, SerializeStringAssetReferenceMap=0.001803, SaveThumbNailsAssetRegistryDataWorldLevelInfo=0.969328, SerializeExports=4.779391, SerializeBulkData=15.197035, MoveFile=2.034117, UnaccountedTime=1.059685, RunGuid=RunID894A44BC4E7428D873FD73894C09D53A
DDCTransactionIdD8CAA3F54E7E663845B8A7BD32AECB51_8, PutCachedData=, CacheKey=REFL_FULL_0C6693969CB849AE9F4120FF5812F4D2_DCAECD2248E045E5733AD3B15793B790, StartTime=2016.06.11-11.15.09, HierarchicalDDC=, DataSize=496447, Duration=0.724372, RunGuid=RunID894A44BC4E7428D873FD73894C09D53A
DDCTransactionId6DF38529433A6C724B8F6B8433FD9248_13, PutCachedData=, CacheKey=REFL_FULL_0C6693969CB849AE9F4120FF5812F4D2_44215CC14CA6CB821148A4AF1214ECFB, StartTime=2016.06.11-11.15.09, HierarchicalDDC=, DataSize=513830, Duration=0.664029, RunGuid=RunID894A44BC4E7428D873FD73894C09D53A
SavePackageTransactionId66D03CB94B077C1725A3659D092CFEDB_7, Filename=C:/Users/Mattias/Documents/Unreal Projects/ReplicationLab/Content/Blueprints/BP_Pawn.uasset, AutoPackageBackupDelegate=4.139382, FlushAsyncLoading=0.004202, FlushStreamingFunc=12.008369, BlockTillAllRequestsFinished=0.010207, ResetLoadersForSaveUnMarkAllObjects=0.228748, TagPackageExports=5.272616, BeginCacheForCookedPlatformData=0.002101, SerializeImports=6.439164, GatherLocalizableTextData=5.230587, MarkNames=0.037823, SerializeSummary=0.012912, SerializeNames=0.239555, SerializeGatherableTextData=0.046227, BuildExportMap=0.124283, SortExportsNonSeekfree=0.794612, SortExportsSeekfreeConstructor=0.049833, SortExportsSeekfreeInner=7.724300, SortExportsSeekfree=0.003602, BuildDependencyMap=0.058535, SerializeImportMap=0.011407, SerializeExportMap=0.036325, SerializeDependencyMap=0.008404, SerializeStringAssetReferenceMap=0.002101, SaveThumbNailsAssetRegistryDataWorldLevelInfo=0.761893, SerializeExports=7.816460, SerializeBulkData=0.003900, MoveFile=2.106763, UnaccountedTime=1.111019, RunGuid=RunID894A44BC4E7428D873FD73894C09D53A
SavePackageTransactionId66D03CB94B077C1725A3659D092CFEDB_8, Filename=C:/Users/Mattias/Documents/Unreal Projects/ReplicationLab/Content/Blueprints/BP_PickupObject.uasset, AutoPackageBackupDelegate=0.112575, FlushAsyncLoading=0.003904, FlushStreamingFunc=3.822073, BlockTillAllRequestsFinished=0.005104, ResetLoadersForSaveUnMarkAllObjects=0.207733, TagPackageExports=0.856757, BeginCacheForCookedPlatformData=0.001799, SerializeImports=1.312751, GatherLocalizableTextData=0.768196, MarkNames=0.012610, SerializeSummary=0.009604, SerializeNames=0.063643, SerializeGatherableTextData=0.004504, BuildExportMap=0.044126, SortExportsNonSeekfree=0.057939, SortExportsSeekfreeConstructor=0.050731, SortExportsSeekfreeInner=2.753083, SortExportsSeekfree=0.002701, BuildDependencyMap=0.015009, SerializeImportMap=0.007506, SerializeExportMap=0.009604, SerializeDependencyMap=0.003301, SerializeStringAssetReferenceMap=0.002101, SaveThumbNailsAssetRegistryDataWorldLevelInfo=0.213139, SerializeExports=1.377892, SerializeBulkData=0.005703, MoveFile=1.090907, UnaccountedTime=0.985239, RunGuid=RunID894A44BC4E7428D873FD73894C09D53A
SavePackageTransactionId66D03CB94B077C1725A3659D092CFEDB_9, Filename=C:/Users/Mattias/Documents/Unreal Projects/ReplicationLab/Content/Blueprints/NewBlueprint.uasset, AutoPackageBackupDelegate=0.125781, FlushAsyncLoading=0.003602, FlushStreamingFunc=4.437473, BlockTillAllRequestsFinished=0.005104, ResetLoadersForSaveUnMarkAllObjects=0.228748, TagPackageExports=0.008404, BeginCacheForCookedPlatformData=0.000902, SerializeImports=0.401061, GatherLocalizableTextData=0.010505, MarkNames=0.003904, SerializeSummary=0.009906, SerializeNames=0.008706, SerializeGatherableTextData=0.001200, BuildExportMap=0.007804, SortExportsNonSeekfree=0.002701, SortExportsSeekfreeConstructor=0.057939, SortExportsSeekfreeInner=0.009306, SortExportsSeekfree=0.001799, BuildDependencyMap=0.004206, SerializeImportMap=0.050735, SerializeExportMap=0.025515, SerializeDependencyMap=0.001200, SerializeStringAssetReferenceMap=0.001803, SaveThumbNailsAssetRegistryDataWorldLevelInfo=0.011709, SerializeExports=0.004802, SerializeBulkData=0.003602, MoveFile=1.591030, UnaccountedTime=1.074694, RunGuid=RunID894A44BC4E7428D873FD73894C09D53A
SavePackageTransactionId66D03CB94B077C1725A3659D092CFEDB_10, Filename=C:/Users/Mattias/Documents/Unreal Projects/ReplicationLab/Content/Blueprints/BP_PickupObject.uasset, AutoPackageBackupDelegate=4.241142, FlushAsyncLoading=0.005405, FlushStreamingFunc=1.400404, BlockTillAllRequestsFinished=0.004806, ResetLoadersForSaveUnMarkAllObjects=0.201430, TagPackageExports=0.861257, BeginCacheForCookedPlatformData=0.001803, SerializeImports=1.349974, GatherLocalizableTextData=0.772700, MarkNames=0.012606, SerializeSummary=0.009906, SerializeNames=0.069648, SerializeGatherableTextData=0.004500, BuildExportMap=0.045031, SortExportsNonSeekfree=0.059139, SortExportsSeekfreeConstructor=0.007205, SortExportsSeekfreeInner=2.581671, SortExportsSeekfree=0.002999, BuildDependencyMap=0.014409, SerializeImportMap=0.007205, SerializeExportMap=0.009306, SerializeDependencyMap=0.003304, SerializeStringAssetReferenceMap=0.001799, SaveThumbNailsAssetRegistryDataWorldLevelInfo=0.203233, SerializeExports=1.437929, SerializeBulkData=0.004806, MoveFile=1.642060, UnaccountedTime=0.955518, RunGuid=RunID894A44BC4E7428D873FD73894C09D53A
SavePackageTransactionId66D03CB94B077C1725A3659D092CFEDB_11, Filename=C:/Users/Mattias/Documents/Unreal Projects/ReplicationLab/Content/StarterContent/Maps/Minimal_Default.umap, AutoPackageBackupDelegate=5.899120, FlushAsyncLoading=0.010807, FlushStreamingFunc=0.069343, BlockTillAllRequestsFinished=0.006605, ResetLoadersForSaveUnMarkAllObjects=48.937672, TagPackageExports=1.182165, BeginCacheForCookedPlatformData=0.002101, SerializeImports=3.389794, GatherLocalizableTextData=8.556739, MarkNames=0.059139, SerializeSummary=0.016510, SerializeNames=0.364136, SerializeGatherableTextData=0.041727, BuildExportMap=0.235952, SortExportsNonSeekfree=0.307698, SortExportsSeekfreeConstructor=0.056136, SortExportsSeekfreeInner=12.475475, SortExportsSeekfree=0.003602, BuildDependencyMap=0.078350, SerializeImportMap=0.045627, SerializeExportMap=0.031222, SerializeDependencyMap=0.006907, SerializeStringAssetReferenceMap=0.001799, SaveThumbNailsAssetRegistryDataWorldLevelInfo=0.968728, SerializeExports=4.563253, SerializeBulkData=13.419286, MoveFile=1.831185, UnaccountedTime=1.117922, RunGuid=RunID894A44BC4E7428D873FD73894C09D53A
DDCTransactionId6DF38529433A6C724B8F6B8433FD9248_14, PutCachedData=, CacheKey=REFL_FULL_0C6693969CB849AE9F4120FF5812F4D2_DCAECD2248E045E5733AD3B15793B790, StartTime=2016.06.11-11.25.20, HierarchicalDDC=, DataSize=496447, Duration=0.806924, RunGuid=RunID894A44BC4E7428D873FD73894C09D53A
DDCTransactionIdD8CAA3F54E7E663845B8A7BD32AECB51_9, PutCachedData=, CacheKey=REFL_FULL_0C6693969CB849AE9F4120FF5812F4D2_44215CC14CA6CB821148A4AF1214ECFB, StartTime=2016.06.11-11.25.20, HierarchicalDDC=, DataSize=513830, Duration=0.650223, RunGuid=RunID894A44BC4E7428D873FD73894C09D53A
SavePackageTransactionId66D03CB94B077C1725A3659D092CFEDB_12, Filename=C:/Users/Mattias/Documents/Unreal Projects/ReplicationLab/Content/Blueprints/BP_PickupObject.uasset, AutoPackageBackupDelegate=6.208315, FlushAsyncLoading=0.003904, FlushStreamingFunc=0.089757, BlockTillAllRequestsFinished=0.012908, ResetLoadersForSaveUnMarkAllObjects=0.184022, TagPackageExports=0.849549, BeginCacheForCookedPlatformData=0.001803, SerializeImports=1.350272, GatherLocalizableTextData=1.112521, MarkNames=0.015609, SerializeSummary=0.009608, SerializeNames=0.090957, SerializeGatherableTextData=0.007506, BuildExportMap=0.066642, SortExportsNonSeekfree=0.058237, SortExportsSeekfreeConstructor=0.007205, SortExportsSeekfreeInner=4.222233, SortExportsSeekfree=0.003304, BuildDependencyMap=0.016209, SerializeImportMap=0.008404, SerializeExportMap=0.010207, SerializeDependencyMap=0.002101, SerializeStringAssetReferenceMap=0.001501, SaveThumbNailsAssetRegistryDataWorldLevelInfo=7.973462, SerializeExports=1.499768, SerializeBulkData=0.004806, MoveFile=1.919143, UnaccountedTime=1.057282, RunGuid=RunID894A44BC4E7428D873FD73894C09D53A
SavePackageTransactionId66D03CB94B077C1725A3659D092CFEDB_13, Filename=C:/Users/Mattias/Documents/Unreal Projects/ReplicationLab/Content/StarterContent/Maps/Minimal_Default.umap, AutoPackageBackupDelegate=3.851492, FlushAsyncLoading=0.003904, FlushStreamingFunc=0.094559, BlockTillAllRequestsFinished=0.005703, ResetLoadersForSaveUnMarkAllObjects=49.485828, TagPackageExports=1.196273, BeginCacheForCookedPlatformData=0.002101, SerializeImports=3.366981, GatherLocalizableTextData=8.538123, MarkNames=0.079852, SerializeSummary=0.017412, SerializeNames=0.434682, SerializeGatherableTextData=0.045631, BuildExportMap=0.265371, SortExportsNonSeekfree=0.319708, SortExportsSeekfreeConstructor=0.060637, SortExportsSeekfreeInner=12.644485, SortExportsSeekfree=0.003602, BuildDependencyMap=0.086155, SerializeImportMap=0.047129, SerializeExportMap=0.030920, SerializeDependencyMap=0.007503, SerializeStringAssetReferenceMap=0.001803, SaveThumbNailsAssetRegistryDataWorldLevelInfo=0.971429, SerializeExports=4.606482, SerializeBulkData=13.027832, MoveFile=1.697000, UnaccountedTime=1.030266, RunGuid=RunID894A44BC4E7428D873FD73894C09D53A
DDCTransactionId6DF38529433A6C724B8F6B8433FD9248_15, PutCachedData=, CacheKey=REFL_FULL_0C6693969CB849AE9F4120FF5812F4D2_DCAECD2248E045E5733AD3B15793B790, StartTime=2016.06.11-11.27.42, HierarchicalDDC=, DataSize=496447, Duration=0.848647, RunGuid=RunID894A44BC4E7428D873FD73894C09D53A
DDCTransactionIdBE86A67B4CF3607523FD259874FC64C3_11, PutCachedData=, CacheKey=REFL_FULL_0C6693969CB849AE9F4120FF5812F4D2_44215CC14CA6CB821148A4AF1214ECFB, StartTime=2016.06.11-11.27.42, HierarchicalDDC=, DataSize=513830, Duration=0.689548, RunGuid=RunID894A44BC4E7428D873FD73894C09D53A
SavePackageTransactionId66D03CB94B077C1725A3659D092CFEDB_14, Filename=C:/Users/Mattias/Documents/Unreal Projects/ReplicationLab/Content/Blueprints/BP_Pawn.uasset, AutoPackageBackupDelegate=4.661418, FlushAsyncLoading=0.005104, FlushStreamingFunc=0.904486, BlockTillAllRequestsFinished=0.005703, ResetLoadersForSaveUnMarkAllObjects=0.203829, TagPackageExports=5.225781, BeginCacheForCookedPlatformData=0.002101, SerializeImports=6.114960, GatherLocalizableTextData=4.491806, MarkNames=0.036623, SerializeSummary=0.011709, SerializeNames=0.211935, SerializeGatherableTextData=0.041429, BuildExportMap=0.123978, SortExportsNonSeekfree=0.753790, SortExportsSeekfreeConstructor=0.008706, SortExportsSeekfreeInner=7.451423, SortExportsSeekfree=0.005402, BuildDependencyMap=0.066344, SerializeImportMap=0.011705, SerializeExportMap=0.036024, SerializeDependencyMap=0.048328, SerializeStringAssetReferenceMap=0.002705, SaveThumbNailsAssetRegistryDataWorldLevelInfo=0.715062, SerializeExports=7.811055, SerializeBulkData=0.004504, MoveFile=2.158999, UnaccountedTime=0.984337, RunGuid=RunID894A44BC4E7428D873FD73894C09D53A
SavePackageTransactionId66D03CB94B077C1725A3659D092CFEDB_15, Filename=C:/Users/Mattias/Documents/Unreal Projects/ReplicationLab/Content/Blueprints/BP_PickupObject.uasset, AutoPackageBackupDelegate=4.595373, FlushAsyncLoading=0.004806, FlushStreamingFunc=0.074148, BlockTillAllRequestsFinished=0.005104, ResetLoadersForSaveUnMarkAllObjects=0.191223, TagPackageExports=0.872668, BeginCacheForCookedPlatformData=0.002101, SerializeImports=1.368284, GatherLocalizableTextData=1.206480, MarkNames=0.017714, SerializeSummary=0.011105, SerializeNames=0.083156, SerializeGatherableTextData=0.006001, BuildExportMap=0.053436, SortExportsNonSeekfree=0.061240, SortExportsSeekfreeConstructor=0.008106, SortExportsSeekfreeInner=4.430268, SortExportsSeekfree=0.004500, BuildDependencyMap=0.019215, SerializeImportMap=0.008408, SerializeExportMap=0.010207, SerializeDependencyMap=0.002399, SerializeStringAssetReferenceMap=0.001803, SaveThumbNailsAssetRegistryDataWorldLevelInfo=7.859386, SerializeExports=1.530390, SerializeBulkData=0.004802, MoveFile=2.292283, UnaccountedTime=1.023062, RunGuid=RunID894A44BC4E7428D873FD73894C09D53A
SavePackageTransactionId66D03CB94B077C1725A3659D092CFEDB_16, Filename=C:/Users/Mattias/Documents/Unreal Projects/ReplicationLab/Content/Blueprints/BP_Pawn.uasset, AutoPackageBackupDelegate=4.022002, FlushAsyncLoading=0.003900, FlushStreamingFunc=1.896329, BlockTillAllRequestsFinished=0.005402, ResetLoadersForSaveUnMarkAllObjects=0.212841, TagPackageExports=5.114712, BeginCacheForCookedPlatformData=0.002101, SerializeImports=5.985275, GatherLocalizableTextData=4.187111, MarkNames=0.037521, SerializeSummary=0.011411, SerializeNames=0.226043, SerializeGatherableTextData=0.017714, BuildExportMap=0.123978, SortExportsNonSeekfree=0.756491, SortExportsSeekfreeConstructor=0.050433, SortExportsSeekfreeInner=7.245489, SortExportsSeekfree=0.003304, BuildDependencyMap=0.054933, SerializeImportMap=0.013210, SerializeExportMap=0.038125, SerializeDependencyMap=0.011407, SerializeStringAssetReferenceMap=0.002403, SaveThumbNailsAssetRegistryDataWorldLevelInfo=0.711158, SerializeExports=7.808354, SerializeBulkData=0.005703, MoveFile=1.824580, UnaccountedTime=1.016457, RunGuid=RunID894A44BC4E7428D873FD73894C09D53A
SavePackageTransactionId66D03CB94B077C1725A3659D092CFEDB_17, Filename=C:/Users/Mattias/Documents/Unreal Projects/ReplicationLab/Content/Blueprints/BP_Pawn.uasset, AutoPackageBackupDelegate=4.393343, FlushAsyncLoading=0.004202, FlushStreamingFunc=1.494668, BlockTillAllRequestsFinished=0.005104, ResetLoadersForSaveUnMarkAllObjects=0.196926, TagPackageExports=4.444975, BeginCacheForCookedPlatformData=0.002101, SerializeImports=5.473744, GatherLocalizableTextData=4.183207, MarkNames=0.034522, SerializeSummary=0.012308, SerializeNames=0.206534, SerializeGatherableTextData=0.017412, BuildExportMap=0.116475, SortExportsNonSeekfree=0.525039, SortExportsSeekfreeConstructor=0.048634, SortExportsSeekfreeInner=6.686527, SortExportsSeekfree=0.003301, BuildDependencyMap=0.053134, SerializeImportMap=0.011709, SerializeExportMap=0.034522, SerializeDependencyMap=0.007205, SerializeStringAssetReferenceMap=0.001501, SaveThumbNailsAssetRegistryDataWorldLevelInfo=0.660729, SerializeExports=7.044058, SerializeBulkData=0.004504, MoveFile=2.115767, UnaccountedTime=1.148846, RunGuid=RunID894A44BC4E7428D873FD73894C09D53A
SavePackageTransactionId66D03CB94B077C1725A3659D092CFEDB_18, Filename=C:/Users/Mattias/Documents/Unreal Projects/ReplicationLab/Content/Blueprints/BP_Pawn.uasset, AutoPackageBackupDelegate=4.047219, FlushAsyncLoading=0.003301, FlushStreamingFunc=1.703903, BlockTillAllRequestsFinished=0.006307, ResetLoadersForSaveUnMarkAllObjects=0.213735, TagPackageExports=3.978174, BeginCacheForCookedPlatformData=0.002101, SerializeImports=4.993133, GatherLocalizableTextData=4.289776, MarkNames=0.035420, SerializeSummary=0.012912, SerializeNames=0.220940, SerializeGatherableTextData=0.018012, BuildExportMap=0.119179, SortExportsNonSeekfree=0.482410, SortExportsSeekfreeConstructor=0.056438, SortExportsSeekfreeInner=6.317887, SortExportsSeekfree=0.003602, BuildDependencyMap=0.050135, SerializeImportMap=0.012010, SerializeExportMap=0.032119, SerializeDependencyMap=0.005703, SerializeStringAssetReferenceMap=0.001799, SaveThumbNailsAssetRegistryDataWorldLevelInfo=0.643019, SerializeExports=6.119758, SerializeBulkData=0.005104, MoveFile=2.248757, UnaccountedTime=1.186367, RunGuid=RunID894A44BC4E7428D873FD73894C09D53A
SavePackageTransactionId66D03CB94B077C1725A3659D092CFEDB_19, Filename=C:/Users/Mattias/Documents/Unreal Projects/ReplicationLab/Content/StarterContent/Maps/Minimal_Default.umap, AutoPackageBackupDelegate=6.229333, FlushAsyncLoading=0.011105, FlushStreamingFunc=0.155501, BlockTillAllRequestsFinished=0.006605, ResetLoadersForSaveUnMarkAllObjects=47.381767, TagPackageExports=1.182765, BeginCacheForCookedPlatformData=0.001803, SerializeImports=3.843386, GatherLocalizableTextData=8.547734, MarkNames=0.055537, SerializeSummary=0.015009, SerializeNames=0.368338, SerializeGatherableTextData=0.040825, BuildExportMap=0.239857, SortExportsNonSeekfree=0.310700, SortExportsSeekfreeConstructor=0.056136, SortExportsSeekfreeInner=12.278248, SortExportsSeekfree=0.003602, BuildDependencyMap=0.075046, SerializeImportMap=0.047430, SerializeExportMap=0.031520, SerializeDependencyMap=0.006605, SerializeStringAssetReferenceMap=0.001799, SaveThumbNailsAssetRegistryDataWorldLevelInfo=0.956118, SerializeExports=4.575863, SerializeBulkData=14.148455, MoveFile=2.065338, UnaccountedTime=1.054581, RunGuid=RunID894A44BC4E7428D873FD73894C09D53A
DDCTransactionIdD8CAA3F54E7E663845B8A7BD32AECB51_10, PutCachedData=, CacheKey=REFL_FULL_0C6693969CB849AE9F4120FF5812F4D2_DCAECD2248E045E5733AD3B15793B790, StartTime=2016.06.11-11.31.35, HierarchicalDDC=, DataSize=496447, Duration=0.707559, RunGuid=RunID894A44BC4E7428D873FD73894C09D53A
DDCTransactionIdBE86A67B4CF3607523FD259874FC64C3_12, PutCachedData=, CacheKey=REFL_FULL_0C6693969CB849AE9F4120FF5812F4D2_44215CC14CA6CB821148A4AF1214ECFB, StartTime=2016.06.11-11.31.35, HierarchicalDDC=, DataSize=513830, Duration=0.672735, RunGuid=RunID894A44BC4E7428D873FD73894C09D53A
SavePackageTransactionId66D03CB94B077C1725A3659D092CFEDB_20, Filename=C:/Users/Mattias/Documents/Unreal Projects/ReplicationLab/Content/Blueprints/BP_PickupObject.uasset, AutoPackageBackupDelegate=3.921136, FlushAsyncLoading=0.003602, FlushStreamingFunc=0.126682, BlockTillAllRequestsFinished=0.004202, ResetLoadersForSaveUnMarkAllObjects=0.175014, TagPackageExports=0.868164, BeginCacheForCookedPlatformData=0.001799, SerializeImports=1.449339, GatherLocalizableTextData=1.094509, MarkNames=0.016209, SerializeSummary=0.010807, SerializeNames=0.082552, SerializeGatherableTextData=0.005707, BuildExportMap=0.051331, SortExportsNonSeekfree=0.059139, SortExportsSeekfreeConstructor=0.007506, SortExportsSeekfreeInner=4.275665, SortExportsSeekfree=0.003003, BuildDependencyMap=0.015609, SerializeImportMap=0.008404, SerializeExportMap=0.009608, SerializeDependencyMap=0.002101, SerializeStringAssetReferenceMap=0.001501, SaveThumbNailsAssetRegistryDataWorldLevelInfo=7.601518, SerializeExports=1.518983, SerializeBulkData=0.004504, MoveFile=2.122372, UnaccountedTime=1.006551, RunGuid=RunID894A44BC4E7428D873FD73894C09D53A
SavePackageTransactionId66D03CB94B077C1725A3659D092CFEDB_21, Filename=C:/Users/Mattias/Documents/Unreal Projects/ReplicationLab/Content/Blueprints/BP_Pawn.uasset, AutoPackageBackupDelegate=5.236287, FlushAsyncLoading=0.007506, FlushStreamingFunc=0.382748, BlockTillAllRequestsFinished=0.007205, ResetLoadersForSaveUnMarkAllObjects=0.204131, TagPackageExports=4.730161, BeginCacheForCookedPlatformData=0.003602, SerializeImports=5.466539, GatherLocalizableTextData=3.700193, MarkNames=0.032723, SerializeSummary=0.012908, SerializeNames=0.226345, SerializeGatherableTextData=0.015613, BuildExportMap=0.114072, SortExportsNonSeekfree=0.443686, SortExportsSeekfreeConstructor=0.051934, SortExportsSeekfreeInner=6.514817, SortExportsSeekfree=0.003602, BuildDependencyMap=0.049233, SerializeImportMap=0.010505, SerializeExportMap=0.030622, SerializeDependencyMap=0.005703, SerializeStringAssetReferenceMap=0.001799, SaveThumbNailsAssetRegistryDataWorldLevelInfo=0.630111, SerializeExports=6.147377, SerializeBulkData=0.005104, MoveFile=2.396751, UnaccountedTime=1.420818, RunGuid=RunID894A44BC4E7428D873FD73894C09D53A
SavePackageTransactionId66D03CB94B077C1725A3659D092CFEDB_22, Filename=C:/Users/Mattias/Documents/Unreal Projects/ReplicationLab/Content/Blueprints/BP_PlayerController.uasset, AutoPackageBackupDelegate=4.960112, FlushAsyncLoading=0.004500, FlushStreamingFunc=0.778105, BlockTillAllRequestsFinished=0.005703, ResetLoadersForSaveUnMarkAllObjects=0.204131, TagPackageExports=2.214532, BeginCacheForCookedPlatformData=0.002101, SerializeImports=2.726965, GatherLocalizableTextData=2.101358, MarkNames=0.027321, SerializeSummary=0.013806, SerializeNames=0.125483, SerializeGatherableTextData=0.101764, BuildExportMap=0.102367, SortExportsNonSeekfree=0.223644, SortExportsSeekfreeConstructor=0.008106, SortExportsSeekfreeInner=5.870599, SortExportsSeekfree=0.003304, BuildDependencyMap=0.031520, SerializeImportMap=0.010807, SerializeExportMap=0.019811, SerializeDependencyMap=0.010207, SerializeStringAssetReferenceMap=0.002399, SaveThumbNailsAssetRegistryDataWorldLevelInfo=0.416070, SerializeExports=3.327955, SerializeBulkData=0.004504, MoveFile=1.872010, UnaccountedTime=1.086406, RunGuid=RunID894A44BC4E7428D873FD73894C09D53A
SavePackageTransactionId66D03CB94B077C1725A3659D092CFEDB_23, Filename=C:/Users/Mattias/Documents/Unreal Projects/ReplicationLab/Content/Blueprints/BP_Pawn.uasset, AutoPackageBackupDelegate=4.523627, FlushAsyncLoading=0.005405, FlushStreamingFunc=1.217589, BlockTillAllRequestsFinished=0.005100, ResetLoadersForSaveUnMarkAllObjects=0.203833, TagPackageExports=4.282869, BeginCacheForCookedPlatformData=0.001803, SerializeImports=4.932191, GatherLocalizableTextData=3.732916, MarkNames=0.039324, SerializeSummary=0.011407, SerializeNames=0.204135, SerializeGatherableTextData=0.015307, BuildExportMap=0.111975, SortExportsNonSeekfree=0.440985, SortExportsSeekfreeConstructor=0.050433, SortExportsSeekfreeInner=7.111002, SortExportsSeekfree=0.004802, BuildDependencyMap=0.049531, SerializeImportMap=0.010207, SerializeExportMap=0.030018, SerializeDependencyMap=0.006903, SerializeStringAssetReferenceMap=0.001501, SaveThumbNailsAssetRegistryDataWorldLevelInfo=0.616599, SerializeExports=6.466784, SerializeBulkData=0.004806, MoveFile=2.058432, UnaccountedTime=1.082201, RunGuid=RunID894A44BC4E7428D873FD73894C09D53A
SavePackageTransactionId66D03CB94B077C1725A3659D092CFEDB_24, Filename=C:/Users/Mattias/Documents/Unreal Projects/ReplicationLab/Content/Blueprints/BP_Pawn.uasset, AutoPackageBackupDelegate=4.521526, FlushAsyncLoading=0.004802, FlushStreamingFunc=1.150947, BlockTillAllRequestsFinished=0.005402, ResetLoadersForSaveUnMarkAllObjects=0.215542, TagPackageExports=4.847839, BeginCacheForCookedPlatformData=0.002399, SerializeImports=5.712100, GatherLocalizableTextData=4.937593, MarkNames=0.034522, SerializeSummary=0.013210, SerializeNames=0.122178, SerializeGatherableTextData=0.163306, BuildExportMap=0.119779, SortExportsNonSeekfree=0.512432, SortExportsSeekfreeConstructor=0.051633, SortExportsSeekfreeInner=7.002931, SortExportsSeekfree=0.003602, BuildDependencyMap=0.051633, SerializeImportMap=0.010807, SerializeExportMap=0.031222, SerializeDependencyMap=0.006303, SerializeStringAssetReferenceMap=0.001501, SaveThumbNailsAssetRegistryDataWorldLevelInfo=0.652924, SerializeExports=6.814711, SerializeBulkData=0.005100, MoveFile=1.754034, UnaccountedTime=1.174361, RunGuid=RunID894A44BC4E7428D873FD73894C09D53A
SavePackageTransactionId66D03CB94B077C1725A3659D092CFEDB_25, Filename=C:/Users/Mattias/Documents/Unreal Projects/ReplicationLab/Content/Blueprints/BP_Pawn.uasset, AutoPackageBackupDelegate=4.360322, FlushAsyncLoading=0.003301, FlushStreamingFunc=0.953417, BlockTillAllRequestsFinished=0.005104, ResetLoadersForSaveUnMarkAllObjects=0.205033, TagPackageExports=4.632898, BeginCacheForCookedPlatformData=0.002105, SerializeImports=5.390886, GatherLocalizableTextData=5.928539, MarkNames=0.033621, SerializeSummary=0.010807, SerializeNames=0.231449, SerializeGatherableTextData=0.053138, BuildExportMap=0.118274, SortExportsNonSeekfree=0.517234, SortExportsSeekfreeConstructor=0.050433, SortExportsSeekfreeInner=7.080685, SortExportsSeekfree=0.005100, BuildDependencyMap=0.056136, SerializeImportMap=0.011407, SerializeExportMap=0.033624, SerializeDependencyMap=0.044730, SerializeStringAssetReferenceMap=0.002701, SaveThumbNailsAssetRegistryDataWorldLevelInfo=0.678439, SerializeExports=7.236187, SerializeBulkData=0.006001, MoveFile=2.147287, UnaccountedTime=1.002952, RunGuid=RunID894A44BC4E7428D873FD73894C09D53A
SavePackageTransactionId66D03CB94B077C1725A3659D092CFEDB_26, Filename=C:/Users/Mattias/Documents/Unreal Projects/ReplicationLab/Content/Blueprints/BP_PlayerController.uasset, AutoPackageBackupDelegate=4.533533, FlushAsyncLoading=0.004202, FlushStreamingFunc=1.194172, BlockTillAllRequestsFinished=0.005405, ResetLoadersForSaveUnMarkAllObjects=0.205033, TagPackageExports=2.180614, BeginCacheForCookedPlatformData=0.001799, SerializeImports=2.741374, GatherLocalizableTextData=2.567563, MarkNames=0.022814, SerializeSummary=0.010207, SerializeNames=0.115275, SerializeGatherableTextData=0.102066, BuildExportMap=0.148594, SortExportsNonSeekfree=0.281282, SortExportsSeekfreeConstructor=0.051636, SortExportsSeekfreeInner=5.898215, SortExportsSeekfree=0.004504, BuildDependencyMap=0.032119, SerializeImportMap=0.010505, SerializeExportMap=0.019815, SerializeDependencyMap=0.004806, SerializeStringAssetReferenceMap=0.001799, SaveThumbNailsAssetRegistryDataWorldLevelInfo=0.421472, SerializeExports=3.397901, SerializeBulkData=0.005104, MoveFile=1.667578, UnaccountedTime=1.167458, RunGuid=RunID894A44BC4E7428D873FD73894C09D53A
